[
    {
      "nombre": "Dashboard",
      "redirect": "/dashboard"
    },
    {
      "nombre": "Usuarios",
      "redirect": "/dashboard/usuarios"
    },
    {
      "nombre": "Reportes",
      "redirect": "/dashboard/reportes"
    }
  ]
  